%YAML 1.1
%TAG !u! tag:unity3d.com,2011:
--- !u!114 &11400000
MonoBehaviour:
  m_ObjectHideFlags: 0
  m_CorrespondingSourceObject: {fileID: 0}
  m_PrefabInstance: {fileID: 0}
  m_PrefabAsset: {fileID: 0}
  m_GameObject: {fileID: 0}
  m_Enabled: 1
  m_EditorHideFlags: 0
  m_Script: {fileID: 11500000, guid: 9fc9c0a9aee347f43a68cdac3fc015d5, type: 3}
  m_Name: blue
  m_EditorClassIdentifier: 
  lightColor: {r: 0.13725491, g: 0.2392157, b: 0.6392157, a: 1}
  medColor: {r: 0.1137255, g: 0.16862746, b: 0.54509807, a: 1}
  darkColor: {r: 0.09411766, g: 0.14117648, b: 0.44705886, a: 1}
