%YAML 1.1
%TAG !u! tag:unity3d.com,2011:
--- !u!114 &11400000
MonoBehaviour:
  m_ObjectHideFlags: 0
  m_CorrespondingSourceObject: {fileID: 0}
  m_PrefabInstance: {fileID: 0}
  m_PrefabAsset: {fileID: 0}
  m_GameObject: {fileID: 0}
  m_Enabled: 1
  m_EditorHideFlags: 0
  m_Script: {fileID: 11500000, guid: 9fc9c0a9aee347f43a68cdac3fc015d5, type: 3}
  m_Name: pink
  m_EditorClassIdentifier: 
  lightColor: {r: 0.909804, g: 0.33333334, b: 0.8196079, a: 1}
  medColor: {r: 0.77647066, g: 0.1764706, b: 0.68235296, a: 1}
  darkColor: {r: 0.64705884, g: 0.14509805, b: 0.57254905, a: 1}
