%YAML 1.1
%TAG !u! tag:unity3d.com,2011:
--- !u!114 &11400000
MonoBehaviour:
  m_ObjectHideFlags: 0
  m_CorrespondingSourceObject: {fileID: 0}
  m_PrefabInstance: {fileID: 0}
  m_PrefabAsset: {fileID: 0}
  m_GameObject: {fileID: 0}
  m_Enabled: 1
  m_EditorHideFlags: 0
  m_Script: {fileID: 11500000, guid: 9fc9c0a9aee347f43a68cdac3fc015d5, type: 3}
  m_Name: white
  m_EditorClassIdentifier: 
  lightColor: {r: 0.91372555, g: 0.91372555, b: 0.93725497, a: 0}
  medColor: {r: 0.8078432, g: 0.8078432, b: 0.85098046, a: 0}
  darkColor: {r: 0.6117647, g: 0.6117647, b: 0.7058824, a: 0}
