%YAML 1.1
%TAG !u! tag:unity3d.com,2011:
--- !u!114 &11400000
MonoBehaviour:
  m_ObjectHideFlags: 0
  m_CorrespondingSourceObject: {fileID: 0}
  m_PrefabInstance: {fileID: 0}
  m_PrefabAsset: {fileID: 0}
  m_GameObject: {fileID: 0}
  m_Enabled: 1
  m_EditorHideFlags: 0
  m_Script: {fileID: 11500000, guid: 9fc9c0a9aee347f43a68cdac3fc015d5, type: 3}
  m_Name: yellow
  m_EditorClassIdentifier: 
  lightColor: {r: 0.9686275, g: 0.7372549, b: 0.050980397, a: 0}
  medColor: {r: 0.8352942, g: 0.5372549, b: 0.09019608, a: 0}
  darkColor: {r: 0.7019608, g: 0.41176474, b: 0.20000002, a: 0}
